#include <bits/stdc++.h>
int main() 
{
int mat[10][10],deg[10]={0},n,i,j,k,deg1=0,deg2=0,deg3=0,degn=0;
std::cout<<"Enter the number of nodes: ";
std::cin>>n;
for(i=0;i<n;i++)
{
  for(j=0;j<n;j++)
  {
    std::cin>>mat[i][j];
  }
}
/*for(i=0;i<n;i++)
{
  std::cout<<"\n";
  for(j=0;j<n;j++)
  {
    std::cout<<mat[i][j];
    std::cout<<"\t";
  }
}*/
for(i=0;i<n;i++)
{
  for(j=0;j<n;j++)
{
deg[i]=deg[i]+mat[i][j];

}
std::cout<<"Sum of no."<<i+1<< "rows "<<deg[i]<<"\n";

}
for(i=0;i<n;i++)
{
if(deg[i]==2)
deg2++;
else if(deg[i]==3)
deg3++;
else if(deg[i]==1)
deg1++;
else if(deg[i]==n-1)
degn++;
}
std::cout<<"Number nodes having Degree 1: "<<deg1<<"\n";
std::cout<<"Number nodes having Degree 2: "<<deg2<<"\n";
std::cout<<"Number nodes having Degree 3: "<<deg3<<"\n";
if(deg2==n)
{
  std::cout<<"The given Graph is cycle \n";
}
else if((deg3==n-1 && degn==1)||(deg3==n))
{
  std::cout<<"The given Graph is wheel\n";
}
else
  std::cout<<"The given Graph is unknown\n";

return 0;
}